{    "operations": {
        "all": {
            "content": [
                {
                    "id": 544452070,
                    "processId": 19316077,
                    "concept": "Agua",
                    "amount": -8626,
                    "createDate": "2024-08-22T13:56:53.786968",
                    "status": "Completado",
                    "dues": null,
                    "description": "Pago de servicio",
                    "operationType": "ACCOUNT",
                    "operationSource": "845050032322",
                    "currency": "USD"
                }
            ],
            "pageable": {
                "sort": {
                    "empty": false,
                    "sorted": true,
                    "unsorted": false
                },
                "offset": 0,
                "pageNumber": 0,
                "pageSize": 15,
                "paged": true,
                "unpaged": false
            },
            "last": false,
            "totalElements": 64,
            "totalPages": 5,
            "first": true,
            "numberOfElements": 15,
            "size": 15,
            "number": 0,
            "sort": {
                "empty": false,
                "sorted": true,
                "unsorted": false
            },
            "empty": false
        },
        "accounts": {
            "content": [
                {
                    "id": 544452070,
                    "processId": 19316077,
                    "concept": "Agua",
                    "amount": -8626,
                    "createDate": "2024-08-22T13:56:53.786968",
                    "status": "Completado",
                    "dues": null,
                    "cardNumber": null,
                    "description": "Pago de servicio",
                    "operationType": "ACCOUNT",
                    "currency": "USD"
                },
                {
                    "id": 544451973,
                    "processId": 56048798,
                    "concept": "Alicia Keys",
                    "amount": -1500,
                    "createDate": "2024-08-22T13:54:13.113674",
                    "status": "Completado",
                    "dues": null,
                    "cardNumber": null,
                    "description": "Transferencia",
                    "operationType": "ACCOUNT",
                    "currency": "USD"
                },
                {
                    "id": 544451562,
                    "processId": 40490178,
                    "concept": "Bob Johnson",
                    "amount": -15000,
                    "createDate": "2024-08-22T13:11:22.919311",
                    "status": "Completado",
                    "dues": null,
                    "cardNumber": null,
                    "description": "Transferencia",
                    "operationType": "ACCOUNT",
                    "currency": "USD"
                },
                {
                    "id": 544451531,
                    "processId": 57716894,
                    "concept": "Agua",
                    "amount": -8626,
                    "createDate": "2024-08-22T13:09:03.447133",
                    "status": "Completado",
                    "dues": null,
                    "cardNumber": null,
                    "description": "Pago de servicio",
                    "operationType": "ACCOUNT",
                    "currency": "USD"
                },
                {
                    "id": 544451503,
                    "processId": 56895744,
                    "concept": "Alice Smith",
                    "amount": -15000,
                    "createDate": "2024-08-22T13:08:16.133414",
                    "status": "Completado",
                    "dues": null,
                    "cardNumber": null,
                    "description": "Transferencia",
                    "operationType": "ACCOUNT",
                    "currency": "USD"
                },
                {
                    "id": 544451473,
                    "processId": 48019749,
                    "concept": "Agua",
                    "amount": -8626,
                    "createDate": "2024-08-22T13:05:40.83045",
                    "status": "Completado",
                    "dues": null,
                    "cardNumber": null,
                    "description": "Pago de servicio",
                    "operationType": "ACCOUNT",
                    "currency": "USD"
                },
                {
                    "id": 544451449,
                    "processId": 22889487,
                    "concept": "Alice Smith",
                    "amount": -15000,
                    "createDate": "2024-08-22T13:04:57.394804",
                    "status": "Completado",
                    "dues": null,
                    "cardNumber": null,
                    "description": "Transferencia",
                    "operationType": "ACCOUNT",
                    "currency": "USD"
                },
                {
                    "id": 544451420,
                    "processId": 72089935,
                    "concept": "Agua",
                    "amount": -8626,
                    "createDate": "2024-08-22T12:59:15.154628",
                    "status": "Completado",
                    "dues": null,
                    "cardNumber": null,
                    "description": "Pago de servicio",
                    "operationType": "ACCOUNT",
                    "currency": "USD"
                },
                {
                    "id": 544451400,
                    "processId": 47958015,
                    "concept": "Alice Smith",
                    "amount": -15000,
                    "createDate": "2024-08-22T12:58:36.12637",
                    "status": "Completado",
                    "dues": null,
                    "cardNumber": null,
                    "description": "Transferencia",
                    "operationType": "ACCOUNT",
                    "currency": "USD"
                },
                {
                    "id": 544451395,
                    "processId": 90629160,
                    "concept": "Agua",
                    "amount": -8626,
                    "createDate": "2024-08-22T12:47:37.187301",
                    "status": "Completado",
                    "dues": null,
                    "cardNumber": null,
                    "description": "Pago de servicio",
                    "operationType": "ACCOUNT",
                    "currency": "USD"
                }
            ],
            "pageable": {
                "sort": {
                    "empty": false,
                    "sorted": true,
                    "unsorted": false
                },
                "offset": 0,
                "pageNumber": 0,
                "pageSize": 10,
                "paged": true,
                "unpaged": false
            },
            "last": false,
            "totalElements": 64,
            "totalPages": 7,
            "first": true,
            "numberOfElements": 10,
            "size": 10,
            "number": 0,
            "sort": {
                "empty": false,
                "sorted": true,
                "unsorted": false
            },
            "empty": false
        },
        "cards": {
            "content": [],
            "pageable": {
                "sort": {
                    "empty": false,
                    "sorted": true,
                    "unsorted": false
                },
                "offset": 0,
                "pageNumber": 0,
                "pageSize": 10,
                "paged": true,
                "unpaged": false
            },
            "last": true,
            "totalElements": 0,
            "totalPages": 0,
            "first": true,
            "numberOfElements": 0,
            "size": 10,
            "number": 0,
            "sort": {
                "empty": false,
                "sorted": true,
                "unsorted": false
            },
            "empty": true
        },
        "pending-operations": {
            "totalAmount": 0,
            "pendingOperations": []
        },
        "operation-id": {
            "id": 544451531,
            "processId": 57716894,
            "concept": "Agua",
            "amount": -8626,
            "createDate": "2024-08-22T13:09:03.447133",
            "status": "Completado",
            "dues": null,
            "cardNumber": null,
            "description": "Pago de servicio",
            "operationType": "ACCOUNT",
            "currency": "USD"
        }
    }
}
